{"frames": [

{
	"filename": "platformPack_tile011.png",
	"frame": {"x":1,"y":1,"w":64,"h":64},
	"rotated": false,
	"trimmed": false,
	"spriteSourceSize": {"x":0,"y":0,"w":64,"h":64},
	"sourceSize": {"w":64,"h":64}
},
{
	"filename": "platformPack_tile012.png",
	"frame": {"x":1,"y":67,"w":64,"h":64},
	"rotated": false,
	"trimmed": false,
	"spriteSourceSize": {"x":0,"y":0,"w":64,"h":64},
	"sourceSize": {"w":64,"h":64}
},
{
	"filename": "platformPack_tile023.png",
	"frame": {"x":67,"y":1,"w":64,"h":64},
	"rotated": false,
	"trimmed": false,
	"spriteSourceSize": {"x":0,"y":0,"w":64,"h":64},
	"sourceSize": {"w":64,"h":64}
},
{
	"filename": "platformPack_tile024.png",
	"frame": {"x":1,"y":133,"w":64,"h":64},
	"rotated": false,
	"trimmed": false,
	"spriteSourceSize": {"x":0,"y":0,"w":64,"h":64},
	"sourceSize": {"w":64,"h":64}
},
{
	"filename": "platformPack_tile048.png",
	"frame": {"x":67,"y":67,"w":64,"h":64},
	"rotated": false,
	"trimmed": false,
	"spriteSourceSize": {"x":0,"y":0,"w":64,"h":64},
	"sourceSize": {"w":64,"h":64}
},
{
	"filename": "platformPack_tile049.png",
	"frame": {"x":133,"y":1,"w":64,"h":64},
	"rotated": false,
	"trimmed": false,
	"spriteSourceSize": {"x":0,"y":0,"w":64,"h":64},
	"sourceSize": {"w":64,"h":64}
},
{
	"filename": "platformPack_tile050.png",
	"frame": {"x":67,"y":133,"w":64,"h":64},
	"rotated": false,
	"trimmed": false,
	"spriteSourceSize": {"x":0,"y":0,"w":64,"h":64},
	"sourceSize": {"w":64,"h":64}
},
{
	"filename": "platformPack_tile051.png",
	"frame": {"x":133,"y":67,"w":64,"h":64},
	"rotated": false,
	"trimmed": false,
	"spriteSourceSize": {"x":0,"y":0,"w":64,"h":64},
	"sourceSize": {"w":64,"h":64}
},
{
	"filename": "platformPack_tile052.png",
	"frame": {"x":199,"y":1,"w":64,"h":64},
	"rotated": false,
	"trimmed": false,
	"spriteSourceSize": {"x":0,"y":0,"w":64,"h":64},
	"sourceSize": {"w":64,"h":64}
},
{
	"filename": "platformPack_tile053.png",
	"frame": {"x":1,"y":199,"w":58,"h":34},
	"rotated": false,
	"trimmed": true,
	"spriteSourceSize": {"x":3,"y":30,"w":58,"h":34},
	"sourceSize": {"w":64,"h":64}
},
{
	"filename": "platformPack_tile054.png",
	"frame": {"x":181,"y":199,"w":59,"h":22},
	"rotated": false,
	"trimmed": true,
	"spriteSourceSize": {"x":3,"y":42,"w":59,"h":22},
	"sourceSize": {"w":64,"h":64}
},
{
	"filename": "platformPack_tile055.png",
	"frame": {"x":265,"y":133,"w":58,"h":34},
	"rotated": false,
	"trimmed": true,
	"spriteSourceSize": {"x":3,"y":30,"w":58,"h":34},
	"sourceSize": {"w":64,"h":64}
},
{
	"filename": "platformPack_tile056.png",
	"frame": {"x":265,"y":169,"w":59,"h":22},
	"rotated": false,
	"trimmed": true,
	"spriteSourceSize": {"x":3,"y":42,"w":59,"h":22},
	"sourceSize": {"w":64,"h":64}
},
{
	"filename": "platformPack_tile057.png",
	"frame": {"x":265,"y":1,"w":64,"h":64},
	"rotated": false,
	"trimmed": false,
	"spriteSourceSize": {"x":0,"y":0,"w":64,"h":64},
	"sourceSize": {"w":64,"h":64}
},
{
	"filename": "platformPack_tile058.png",
	"frame": {"x":133,"y":133,"w":64,"h":64},
	"rotated": false,
	"trimmed": false,
	"spriteSourceSize": {"x":0,"y":0,"w":64,"h":64},
	"sourceSize": {"w":64,"h":64}
},
{
	"filename": "platformPack_tile059.png",
	"frame": {"x":199,"y":67,"w":64,"h":64},
	"rotated": false,
	"trimmed": false,
	"spriteSourceSize": {"x":0,"y":0,"w":64,"h":64},
	"sourceSize": {"w":64,"h":64}
},
{
	"filename": "platformPack_tile060.png",
	"frame": {"x":265,"y":67,"w":64,"h":64},
	"rotated": false,
	"trimmed": false,
	"spriteSourceSize": {"x":0,"y":0,"w":64,"h":64},
	"sourceSize": {"w":64,"h":64}
},
{
	"filename": "platformPack_tile061.png",
	"frame": {"x":199,"y":133,"w":64,"h":64},
	"rotated": false,
	"trimmed": false,
	"spriteSourceSize": {"x":0,"y":0,"w":64,"h":64},
	"sourceSize": {"w":64,"h":64}
},
{
	"filename": "platformPack_tile062.png",
	"frame": {"x":61,"y":199,"w":58,"h":34},
	"rotated": false,
	"trimmed": true,
	"spriteSourceSize": {"x":3,"y":30,"w":58,"h":34},
	"sourceSize": {"w":64,"h":64}
},
{
	"filename": "platformPack_tile063.png",
	"frame": {"x":265,"y":193,"w":59,"h":22},
	"rotated": false,
	"trimmed": true,
	"spriteSourceSize": {"x":3,"y":42,"w":59,"h":22},
	"sourceSize": {"w":64,"h":64}
},
{
	"filename": "platformPack_tile064.png",
	"frame": {"x":121,"y":199,"w":58,"h":34},
	"rotated": false,
	"trimmed": true,
	"spriteSourceSize": {"x":3,"y":30,"w":58,"h":34},
	"sourceSize": {"w":64,"h":64}
},
{
	"filename": "platformPack_tile065.png",
	"frame": {"x":242,"y":217,"w":59,"h":22},
	"rotated": false,
	"trimmed": true,
	"spriteSourceSize": {"x":3,"y":42,"w":59,"h":22},
	"sourceSize": {"w":64,"h":64}
}],
"meta": {
	"app": "https://www.codeandweb.com/texturepacker",
	"version": "1.0",
	"image": "extras.png",
	"format": "RGBA8888",
	"size": {"w":330,"h":240},
	"scale": "1",
	"smartupdate": "$TexturePacker:SmartUpdate:cd7ac3765043d1516d2ed720c950f81a:c10613abaf6097514c1b150057353bee:0f4f1f7ea409a4f833bc32f771a3ef9f$"
}
}
