{"frames": [

{
	"filename": "barnacle.png",
	"frame": {"x":35,"y":31,"w":26,"h":27},
	"rotated": false,
	"trimmed": true,
	"spriteSourceSize": {"x":3,"y":5,"w":26,"h":27},
	"sourceSize": {"w":32,"h":32}
},
{
	"filename": "barnacle_attack.png",
	"frame": {"x":35,"y":1,"w":26,"h":28},
	"rotated": false,
	"trimmed": true,
	"spriteSourceSize": {"x":3,"y":4,"w":26,"h":28},
	"sourceSize": {"w":32,"h":32}
},
{
	"filename": "barnacle_dead.png",
	"frame": {"x":35,"y":60,"w":26,"h":27},
	"rotated": false,
	"trimmed": true,
	"spriteSourceSize": {"x":3,"y":5,"w":26,"h":27},
	"sourceSize": {"w":32,"h":32}
},
{
	"filename": "bee.png",
	"frame": {"x":33,"y":237,"w":28,"h":25},
	"rotated": false,
	"trimmed": true,
	"spriteSourceSize": {"x":2,"y":4,"w":28,"h":25},
	"sourceSize": {"w":32,"h":32}
},
{
	"filename": "bee_dead.png",
	"frame": {"x":33,"y":264,"w":28,"h":25},
	"rotated": false,
	"trimmed": true,
	"spriteSourceSize": {"x":2,"y":4,"w":28,"h":25},
	"sourceSize": {"w":32,"h":32}
},
{
	"filename": "bee_move.png",
	"frame": {"x":1,"y":404,"w":30,"h":21},
	"rotated": false,
	"trimmed": true,
	"spriteSourceSize": {"x":1,"y":6,"w":30,"h":21},
	"sourceSize": {"w":32,"h":32}
},
{
	"filename": "fishBlue.png",
	"frame": {"x":35,"y":141,"w":24,"h":30},
	"rotated": false,
	"trimmed": true,
	"spriteSourceSize": {"x":4,"y":1,"w":24,"h":30},
	"sourceSize": {"w":32,"h":32}
},
{
	"filename": "fishBlue_dead.png",
	"frame": {"x":35,"y":173,"w":24,"h":30},
	"rotated": false,
	"trimmed": true,
	"spriteSourceSize": {"x":4,"y":1,"w":24,"h":30},
	"sourceSize": {"w":32,"h":32}
},
{
	"filename": "fishBlue_fall.png",
	"frame": {"x":35,"y":205,"w":24,"h":30},
	"rotated": false,
	"trimmed": true,
	"spriteSourceSize": {"x":4,"y":1,"w":24,"h":30},
	"sourceSize": {"w":32,"h":32}
},
{
	"filename": "fishGreen.png",
	"frame": {"x":1,"y":300,"w":30,"h":24},
	"rotated": false,
	"trimmed": true,
	"spriteSourceSize": {"x":1,"y":4,"w":30,"h":24},
	"sourceSize": {"w":32,"h":32}
},
{
	"filename": "fishGreen_dead.png",
	"frame": {"x":1,"y":326,"w":30,"h":24},
	"rotated": false,
	"trimmed": true,
	"spriteSourceSize": {"x":1,"y":4,"w":30,"h":24},
	"sourceSize": {"w":32,"h":32}
},
{
	"filename": "fishGreen_move.png",
	"frame": {"x":33,"y":291,"w":28,"h":23},
	"rotated": false,
	"trimmed": true,
	"spriteSourceSize": {"x":2,"y":5,"w":28,"h":23},
	"sourceSize": {"w":32,"h":32}
},
{
	"filename": "fishPink.png",
	"frame": {"x":1,"y":352,"w":30,"h":24},
	"rotated": false,
	"trimmed": true,
	"spriteSourceSize": {"x":1,"y":4,"w":30,"h":24},
	"sourceSize": {"w":32,"h":32}
},
{
	"filename": "fishPink_dead.png",
	"frame": {"x":1,"y":378,"w":30,"h":24},
	"rotated": false,
	"trimmed": true,
	"spriteSourceSize": {"x":1,"y":4,"w":30,"h":24},
	"sourceSize": {"w":32,"h":32}
},
{
	"filename": "fishPink_move.png",
	"frame": {"x":33,"y":316,"w":28,"h":23},
	"rotated": false,
	"trimmed": true,
	"spriteSourceSize": {"x":2,"y":5,"w":28,"h":23},
	"sourceSize": {"w":32,"h":32}
},
{
	"filename": "fly.png",
	"frame": {"x":1,"y":541,"w":29,"h":23},
	"rotated": false,
	"trimmed": true,
	"spriteSourceSize": {"x":2,"y":5,"w":29,"h":23},
	"sourceSize": {"w":32,"h":32}
},
{
	"filename": "fly_dead.png",
	"frame": {"x":1,"y":69,"w":32,"h":21},
	"rotated": false,
	"trimmed": true,
	"spriteSourceSize": {"x":0,"y":6,"w":32,"h":21},
	"sourceSize": {"w":32,"h":32}
},
{
	"filename": "fly_move.png",
	"frame": {"x":32,"y":542,"w":29,"h":23},
	"rotated": false,
	"trimmed": true,
	"spriteSourceSize": {"x":2,"y":5,"w":29,"h":23},
	"sourceSize": {"w":32,"h":32}
},
{
	"filename": "frog.png",
	"frame": {"x":33,"y":365,"w":28,"h":19},
	"rotated": false,
	"trimmed": true,
	"spriteSourceSize": {"x":2,"y":13,"w":28,"h":19},
	"sourceSize": {"w":32,"h":32}
},
{
	"filename": "frog_dead.png",
	"frame": {"x":1,"y":244,"w":30,"h":26},
	"rotated": false,
	"trimmed": true,
	"spriteSourceSize": {"x":1,"y":6,"w":30,"h":26},
	"sourceSize": {"w":32,"h":32}
},
{
	"filename": "frog_move.png",
	"frame": {"x":1,"y":272,"w":30,"h":26},
	"rotated": false,
	"trimmed": true,
	"spriteSourceSize": {"x":1,"y":6,"w":30,"h":26},
	"sourceSize": {"w":32,"h":32}
},
{
	"filename": "ladybug.png",
	"frame": {"x":1,"y":448,"w":30,"h":17},
	"rotated": false,
	"trimmed": true,
	"spriteSourceSize": {"x":1,"y":15,"w":30,"h":17},
	"sourceSize": {"w":32,"h":32}
},
{
	"filename": "ladybug_fly.png",
	"frame": {"x":1,"y":566,"w":29,"h":20},
	"rotated": false,
	"trimmed": true,
	"spriteSourceSize": {"x":1,"y":12,"w":29,"h":20},
	"sourceSize": {"w":32,"h":32}
},
{
	"filename": "ladybug_move.png",
	"frame": {"x":1,"y":467,"w":30,"h":17},
	"rotated": false,
	"trimmed": true,
	"spriteSourceSize": {"x":1,"y":15,"w":30,"h":17},
	"sourceSize": {"w":32,"h":32}
},
{
	"filename": "mouse.png",
	"frame": {"x":1,"y":486,"w":30,"h":17},
	"rotated": false,
	"trimmed": true,
	"spriteSourceSize": {"x":1,"y":15,"w":30,"h":17},
	"sourceSize": {"w":32,"h":32}
},
{
	"filename": "mouse_dead.png",
	"frame": {"x":1,"y":505,"w":30,"h":17},
	"rotated": false,
	"trimmed": true,
	"spriteSourceSize": {"x":1,"y":15,"w":30,"h":17},
	"sourceSize": {"w":32,"h":32}
},
{
	"filename": "mouse_move.png",
	"frame": {"x":32,"y":567,"w":29,"h":17},
	"rotated": false,
	"trimmed": true,
	"spriteSourceSize": {"x":1,"y":15,"w":29,"h":17},
	"sourceSize": {"w":32,"h":32}
},
{
	"filename": "saw.png",
	"frame": {"x":1,"y":1,"w":32,"h":32},
	"rotated": false,
	"trimmed": false,
	"spriteSourceSize": {"x":0,"y":0,"w":32,"h":32},
	"sourceSize": {"w":32,"h":32}
},
{
	"filename": "saw_dead.png",
	"frame": {"x":1,"y":35,"w":32,"h":32},
	"rotated": false,
	"trimmed": false,
	"spriteSourceSize": {"x":0,"y":0,"w":32,"h":32},
	"sourceSize": {"w":32,"h":32}
},
{
	"filename": "saw_move.png",
	"frame": {"x":1,"y":212,"w":30,"h":30},
	"rotated": false,
	"trimmed": true,
	"spriteSourceSize": {"x":1,"y":1,"w":30,"h":30},
	"sourceSize": {"w":32,"h":32}
},
{
	"filename": "sawHalf.png",
	"frame": {"x":1,"y":92,"w":32,"h":16},
	"rotated": false,
	"trimmed": true,
	"spriteSourceSize": {"x":0,"y":16,"w":32,"h":16},
	"sourceSize": {"w":32,"h":32}
},
{
	"filename": "sawHalf_dead.png",
	"frame": {"x":1,"y":110,"w":32,"h":16},
	"rotated": false,
	"trimmed": true,
	"spriteSourceSize": {"x":0,"y":16,"w":32,"h":16},
	"sourceSize": {"w":32,"h":32}
},
{
	"filename": "sawHalf_move.png",
	"frame": {"x":1,"y":524,"w":30,"h":15},
	"rotated": false,
	"trimmed": true,
	"spriteSourceSize": {"x":1,"y":17,"w":30,"h":15},
	"sourceSize": {"w":32,"h":32}
},
{
	"filename": "slimeBlock.png",
	"frame": {"x":35,"y":89,"w":26,"h":24},
	"rotated": false,
	"trimmed": true,
	"spriteSourceSize": {"x":3,"y":8,"w":26,"h":24},
	"sourceSize": {"w":32,"h":32}
},
{
	"filename": "slimeBlock_dead.png",
	"frame": {"x":35,"y":115,"w":26,"h":24},
	"rotated": false,
	"trimmed": true,
	"spriteSourceSize": {"x":3,"y":8,"w":26,"h":24},
	"sourceSize": {"w":32,"h":32}
},
{
	"filename": "slimeBlock_move.png",
	"frame": {"x":33,"y":341,"w":28,"h":22},
	"rotated": false,
	"trimmed": true,
	"spriteSourceSize": {"x":2,"y":10,"w":28,"h":22},
	"sourceSize": {"w":32,"h":32}
},
{
	"filename": "slimeBlue.png",
	"frame": {"x":33,"y":485,"w":24,"h":17},
	"rotated": false,
	"trimmed": true,
	"spriteSourceSize": {"x":4,"y":15,"w":24,"h":17},
	"sourceSize": {"w":32,"h":32}
},
{
	"filename": "slimeBlue_dead.png",
	"frame": {"x":33,"y":504,"w":24,"h":17},
	"rotated": false,
	"trimmed": true,
	"spriteSourceSize": {"x":4,"y":15,"w":24,"h":17},
	"sourceSize": {"w":32,"h":32}
},
{
	"filename": "slimeBlue_hit.png",
	"frame": {"x":33,"y":458,"w":28,"h":7},
	"rotated": false,
	"trimmed": true,
	"spriteSourceSize": {"x":2,"y":25,"w":28,"h":7},
	"sourceSize": {"w":32,"h":32}
},
{
	"filename": "slimeBlue_move.png",
	"frame": {"x":33,"y":407,"w":28,"h":15},
	"rotated": false,
	"trimmed": true,
	"spriteSourceSize": {"x":2,"y":17,"w":28,"h":15},
	"sourceSize": {"w":32,"h":32}
},
{
	"filename": "slimeGreen.png",
	"frame": {"x":33,"y":523,"w":24,"h":17},
	"rotated": false,
	"trimmed": true,
	"spriteSourceSize": {"x":4,"y":15,"w":24,"h":17},
	"sourceSize": {"w":32,"h":32}
},
{
	"filename": "slimeGreen_dead.png",
	"frame": {"x":32,"y":586,"w":24,"h":17},
	"rotated": false,
	"trimmed": true,
	"spriteSourceSize": {"x":4,"y":15,"w":24,"h":17},
	"sourceSize": {"w":32,"h":32}
},
{
	"filename": "slimeGreen_hit.png",
	"frame": {"x":33,"y":467,"w":28,"h":7},
	"rotated": false,
	"trimmed": true,
	"spriteSourceSize": {"x":2,"y":25,"w":28,"h":7},
	"sourceSize": {"w":32,"h":32}
},
{
	"filename": "slimeGreen_move.png",
	"frame": {"x":33,"y":424,"w":28,"h":15},
	"rotated": false,
	"trimmed": true,
	"spriteSourceSize": {"x":2,"y":17,"w":28,"h":15},
	"sourceSize": {"w":32,"h":32}
},
{
	"filename": "slimePurple.png",
	"frame": {"x":1,"y":588,"w":24,"h":17},
	"rotated": false,
	"trimmed": true,
	"spriteSourceSize": {"x":4,"y":15,"w":24,"h":17},
	"sourceSize": {"w":32,"h":32}
},
{
	"filename": "slimePurple_dead.png",
	"frame": {"x":1,"y":607,"w":24,"h":17},
	"rotated": false,
	"trimmed": true,
	"spriteSourceSize": {"x":4,"y":15,"w":24,"h":17},
	"sourceSize": {"w":32,"h":32}
},
{
	"filename": "slimePurple_hit.png",
	"frame": {"x":33,"y":476,"w":28,"h":7},
	"rotated": false,
	"trimmed": true,
	"spriteSourceSize": {"x":2,"y":25,"w":28,"h":7},
	"sourceSize": {"w":32,"h":32}
},
{
	"filename": "slimePurple_move.png",
	"frame": {"x":33,"y":441,"w":28,"h":15},
	"rotated": false,
	"trimmed": true,
	"spriteSourceSize": {"x":2,"y":17,"w":28,"h":15},
	"sourceSize": {"w":32,"h":32}
},
{
	"filename": "snail.png",
	"frame": {"x":33,"y":386,"w":28,"h":19},
	"rotated": false,
	"trimmed": true,
	"spriteSourceSize": {"x":2,"y":13,"w":28,"h":19},
	"sourceSize": {"w":32,"h":32}
},
{
	"filename": "snail_move.png",
	"frame": {"x":1,"y":427,"w":30,"h":19},
	"rotated": false,
	"trimmed": true,
	"spriteSourceSize": {"x":1,"y":13,"w":30,"h":19},
	"sourceSize": {"w":32,"h":32}
},
{
	"filename": "snail_shell.png",
	"frame": {"x":27,"y":605,"w":22,"h":17},
	"rotated": false,
	"trimmed": true,
	"spriteSourceSize": {"x":5,"y":15,"w":22,"h":17},
	"sourceSize": {"w":32,"h":32}
},
{
	"filename": "wormGreen.png",
	"frame": {"x":1,"y":128,"w":32,"h":12},
	"rotated": false,
	"trimmed": true,
	"spriteSourceSize": {"x":0,"y":20,"w":32,"h":12},
	"sourceSize": {"w":32,"h":32}
},
{
	"filename": "wormGreen_dead.png",
	"frame": {"x":1,"y":142,"w":32,"h":12},
	"rotated": false,
	"trimmed": true,
	"spriteSourceSize": {"x":0,"y":20,"w":32,"h":12},
	"sourceSize": {"w":32,"h":32}
},
{
	"filename": "wormGreen_move.png",
	"frame": {"x":1,"y":156,"w":32,"h":12},
	"rotated": false,
	"trimmed": true,
	"spriteSourceSize": {"x":0,"y":20,"w":32,"h":12},
	"sourceSize": {"w":32,"h":32}
},
{
	"filename": "wormPink.png",
	"frame": {"x":1,"y":170,"w":32,"h":12},
	"rotated": false,
	"trimmed": true,
	"spriteSourceSize": {"x":0,"y":20,"w":32,"h":12},
	"sourceSize": {"w":32,"h":32}
},
{
	"filename": "wormPink_dead.png",
	"frame": {"x":1,"y":184,"w":32,"h":12},
	"rotated": false,
	"trimmed": true,
	"spriteSourceSize": {"x":0,"y":20,"w":32,"h":12},
	"sourceSize": {"w":32,"h":32}
},
{
	"filename": "wormPink_move.png",
	"frame": {"x":1,"y":198,"w":32,"h":12},
	"rotated": false,
	"trimmed": true,
	"spriteSourceSize": {"x":0,"y":20,"w":32,"h":12},
	"sourceSize": {"w":32,"h":32}
}],
"meta": {
	"app": "https://www.codeandweb.com/texturepacker",
	"version": "1.0",
	"image": "enemies.png",
	"format": "RGBA8888",
	"size": {"w":62,"h":625},
	"scale": "0.25",
	"smartupdate": "$TexturePacker:SmartUpdate:1faa19163ad7b3999f386eedd3768f75:ec30287818a6af2ff715aa3fc17ef09d:9b2a76c8b2a408b3f0547a4eddda1e06$"
}
}
